{
  "current": {
    "theme-primary-color": "#8e793e",
    "theme-secondary-color": "#ad974f",
    "heading-text-color": "#231f20",
    "body-text-color": "#797676",
    "border-color": "#e3e3e3",
    "body-background-color": "#fff",
    "body-font": "'Titillium Web', sans-serif",
    "body-font-weight": "400",
    "heading-font": "'Source Sans Pro', sans-serif",
    "heading-font-weight": "700",
    "primary-button-font": "'Titillium Web', sans-serif",
    "primary-button-font-weight": "700",
    "featured-product-main": "",
    "product_module_1": "none",
    "product_module_2": "none",
    "product-sale-goal-use": false,
    "product-sale-goal-style": "gradient",
    "product_sale_goal_button": "Pre-order",
    "product_sale_goal_estimated_delivery_date": "Estimated delivery: April",
    "product_goal_starting_quantity": "",
    "product_goal": "",
    "product_goal_use_quantity": false,
    "product_sale_goal_date_time": "06\/21\/2017 15:00",
    "social_facebook_url": "http:\/\/facebook.com\/pixelunion",
    "social_twitter_url": "http:\/\/twitter.com\/pixelunion",
    "social_google_url": "",
    "social_pinterest_url": "",
    "social_instagram_url": "https:\/\/instagram.com\/pixelunion",
    "social_vimeo_url": "",
    "social_youtube_url": "",
    "social_rss_url": "",
    "show-currency-switcher": true,
    "currency-switcher-format": "money_format",
    "currency_switcher_supported_currencies": "INR GBP CAD USD AUD EUR JPY",
    "currency_switcher_default": "USD",
    "favicon": "",
    "checkout_header_image": "",
    "checkout_logo_image": "",
    "checkout_logo_position": "left",
    "checkout_logo_size": "medium",
    "checkout_body_background_image": "",
    "checkout_body_background_color": "#fff",
    "checkout_input_background_color_mode": "white",
    "checkout_sidebar_background_image": "",
    "checkout_sidebar_background_color": "#fafafa",
    "checkout_heading_font": "Helvetica Neue",
    "checkout_body_font": "Helvetica Neue",
    "checkout_accent_color": "#1990c6",
    "checkout_button_color": "#1990c6",
    "checkout_error_color": "#ff6d6d",
    "theme-primary-color-hover": "#0288b5",
    "sections": {
      "home-slideshow": {
        "type": "home-slideshow",
        "blocks": {
          "slide-1": {
            "type": "slide",
            "settings": {
              "alignment": "center",
              "text_style": "dark",
              "image": "shopify:\/\/shop_images\/man-working-at-startup.jpg",
              "overlay_style": "gradient",
              "overlay_opacity": 20,
              "title": "OMNIDESK",
              "subtitle": "The Revolutionary Lifestyle Choice.",
              "cta": "",
              "url": ""
            }
          },
          "slide-2": {
            "type": "slide",
            "settings": {
              "alignment": "left",
              "text_style": "light",
              "image": "shopify:\/\/shop_images\/working-overtime.jpg",
              "overlay_style": "gradient",
              "overlay_opacity": 20,
              "title": "YOUR CHOICE.",
              "subtitle": "FOR MANAGERS. FOR GAMERS. FOR YOU.",
              "cta": "",
              "url": ""
            }
          },
          "1509526291529": {
            "type": "slide",
            "settings": {
              "alignment": "right",
              "text_style": "light",
              "image": "shopify:\/\/shop_images\/hands-typing-laptop-keyboard.jpg",
              "overlay_style": "gradient",
              "overlay_opacity": 20,
              "title": "OUR MISSION",
              "subtitle": "MAKING HEALTHY LIFESTYLE AFFORDABLE.",
              "cta": "",
              "url": ""
            }
          }
        },
        "block_order": [
          "slide-1",
          "slide-2",
          "1509526291529"
        ],
        "settings": {
          "enable": true,
          "layout": "full-width",
          "transition": "transition-fade",
          "autoplay_speed": 5,
          "autoplay": true
        }
      },
      "home-alternating-content": {
        "type": "home-alternating-content",
        "blocks": {
          "alternating-content-1": {
            "type": "image",
            "settings": {
              "style": "default",
              "title": "RESILIENT. REIMAGINED. REVOLUTIONARY.",
              "text": "<p>The desktop material is perhaps the most important decision you&rsquo;ll make when choosing your new desk. Genuine, natural materials add warmth and beauty to any space. Evodesk maintains a rare standard in the furniture industry: all desktops must be real, and not plastic versions of something made by Mother Nature. But we take it a step further. Our \"do no harm\" philosophy means that we use sustainable, planet-friendly materials.<\/p>\n<p>Our diverse and unique desktops create a one of a kind standing desk. It&rsquo;s the perfect fusion of visual design, functional engineering and craftsmanship. To truly understand the inherent beauty of our desktops, cruise through our Product Builder, or check out the Gallery page for inspiration.<\/p>",
              "button_text": "TABLE MATERIALS",
              "button_link": "shopify:\/\/collections",
              "image": "shopify:\/\/shop_images\/bamboo-rubberwood-standing-desktops.jpg"
            }
          },
          "alternating-content-3": {
            "type": "image",
            "settings": {
              "style": "default",
              "title": "PREMIUM MATERIALS. AMAZING VALUE.",
              "text": "<p>Sometimes what you put in is just as important as what you leave out. Plastic laminate is typical on low cost furniture. But those who spend massive time at their desk often want more. Your desktop is the most visible part of your desk. Take a close look at Evodesk and you will find no plastic laminate. You will find no plastic edge banding that can loosen and peel over time. You will find no uncomfortable sharp edges. We always start with the real material of your choice: recycled wood composite, Rubberwood or Bamboo. We then CNC machine each desktop to give it a smooth contoured edge so you can rest your forearms and wrists comfortably during long hours of work or play.<\/p>\n<p>Fingerprint and smudge resistant, each desktop is made for the real world. All natural Rubberwood and Bamboo desktops feature a solid sustainable desktop that is finished with a 100% solid, ultraviolet light cured finish. The Renew desktop is fully encapsulated in a coating that is four times more abrasion resistant than plastic laminate. The 100% solid, ultraviolet cured finish creates a smudge-resistant coating that brings out the natural beauty of the bamboo and rubberwood.<\/p>",
              "button_text": "CHOOSE YOUR TABLE",
              "button_link": "shopify:\/\/collections",
              "image": "shopify:\/\/shop_images\/evodesk-desktop-controller.jpg"
            }
          },
          "1509526785484": {
            "type": "image",
            "settings": {
              "style": "default",
              "title": "TONS OF BRILLIANT OPTIONS",
              "text": "<p>Options and accessories make Evodesk uniquely yours. The most popular option is the Ergo keyboard platform. Customized to match your Evodesk perfectly, it's designed for the perfect body position during standing and sitting. And with its sliding platform, simply push and store it under Evodesk when not in use.<\/p>\n<p>The newest addition is our EvoEdge&trade; desktop. The ergonomic design brings you even closer to your work. The unique shape and edge profile lets you reach 22 percent more of your desktop.<\/p>\n<p>If you&rsquo;re into great sounding music, it's the premium Harman Kardon integrated sound system. The stunning minimalist design features a down-firing subwoofer installed underneath Evodesk. With everything out of the way and off the floor, the 2.1-channel system rocks 40 watts of clean power&mdash;enough to deliver crystal clear sound.<\/p>",
              "button_text": "",
              "button_link": "",
              "image": "shopify:\/\/shop_images\/evo-trans-standard-homepage_8e2e7155-77f0-4e1d-8714-3c8c33e7646b.png"
            }
          }
        },
        "block_order": [
          "alternating-content-1",
          "alternating-content-3",
          "1509526785484"
        ],
        "settings": {}
      },
      "home-product-focus": {
        "type": "home-product-focus",
        "blocks": {
          "home-product-focus-1": {
            "type": "feature",
            "settings": {
              "title": "Affordability",
              "text": "<p>Bring you the savings by sourcing the best priced parts.<\/p>",
              "icon": "ion-android-refresh"
            }
          },
          "home-product-focus-2": {
            "type": "feature",
            "settings": {
              "title": "Quality",
              "text": "<p>Made from high quality materials to ensure longevity even with the heaviest usage.<\/p>",
              "icon": "ion-android-volume-up"
            }
          },
          "home-product-focus-3": {
            "type": "feature",
            "settings": {
              "title": "Style",
              "text": "<p>Every angle crafted to give the best&nbsp; aesthetics and feel.<\/p>",
              "icon": "ion-android-camera"
            }
          },
          "home-product-focus-4": {
            "type": "feature",
            "settings": {
              "title": "Customizable",
              "text": "<p>Functionality and features can all be customized<\/p>",
              "icon": "ion-wrench"
            }
          }
        },
        "block_order": [
          "home-product-focus-1",
          "home-product-focus-2",
          "home-product-focus-3",
          "home-product-focus-4"
        ],
        "settings": {
          "show_product_image": true,
          "product": "table-image",
          "style": "light",
          "title": "Tech Specs",
          "subtitle": "An upclose look at the OmniDesk's Finest Features"
        }
      },
      "home-images-with-text": {
        "type": "home-images-with-text",
        "blocks": {
          "images-with-text-1": {
            "type": "image",
            "settings": {
              "image": "shopify:\/\/shop_images\/harman-kardon-sound-system-integrated_6c37f2c5-d42a-4071-9826-50c4ccca91eb.png",
              "title": "The OmniDesk Difference",
              "text": "<p>The&nbsp;OmniDesk&nbsp;difference is what happens when superior design meets superior materials. Not to mention, we're proud to say all of our electric-lift desks are manufactured in the USA\/Denmark.The result is unmatched quality, unequalled performance, and a boost to both your productivity and health.Whether you need one desk or a hundred and one, UpDesk stands apart.<\/p>"
            }
          },
          "images-with-text-2": {
            "type": "image",
            "settings": {
              "image": "shopify:\/\/shop_images\/Working-Out-With-Chalk.jpg",
              "title": "Elevate Your Health",
              "text": "<p>Prolonged sitting and sedentary behaviors are so damaging to our health, they've been coined&nbsp;\"the new smoking\"&nbsp;of our generation by several healthcare professionals.There's hope with UpDesk.&nbsp;Movement throughout the day is key and our height-adjustable standing desks allow you to do just that by choosing the perfect combination of sitting and standing.&nbsp;<\/p>"
            }
          },
          "images-with-text-3": {
            "type": "image",
            "settings": {
              "image": "shopify:\/\/shop_images\/old-fashioned-telephone.jpg",
              "title": "UNPARALLELED CUSTOMER SERVICE",
              "text": "<p>There are a lot of choices for sit-to-stand desks, but we are confident you will find our desks, customer service, and overall quality to your liking.Join the tens-of-thousands who have become part of our standing revolution&hellip; Stand out with UpDesk.<\/p>"
            }
          }
        },
        "block_order": [
          "images-with-text-1",
          "images-with-text-2",
          "images-with-text-3"
        ],
        "settings": {
          "style": "default",
          "title": "WHY CHOOSE OMNIDESK?",
          "subtitle": "Plenty of options, but here's what we bring to the table.",
          "alignment": "left"
        }
      },
      "home-full-width-media": {
        "type": "home-full-width-media",
        "settings": {
          "style": "default",
          "title": "CHECKOUT OMNIDESK IN ACTION",
          "text": "",
          "media_layout": "video-highlight",
          "image": "shopify:\/\/shop_images\/man-working-at-startup.jpg",
          "video_url": "https:\/\/www.youtube.com\/watch?v=fvYKiDYBsNs",
          "button_text": "",
          "button_link": ""
        }
      },
      "home-text-columns-with-icons": {
        "type": "home-text-columns-with-icons",
        "blocks": {
          "text-column-1": {
            "type": "text_column",
            "settings": {
              "title": "Feature title",
              "text": "<p>Display up to six features with an option to toggle icons on or off, and add unique calls to action.<\/p>",
              "button_text": "",
              "button_link": "",
              "icon": "ion-image"
            }
          },
          "text-column-2": {
            "type": "text_column",
            "settings": {
              "title": "Feature title",
              "text": "<p>Display up to six features with an option to toggle icons on or off, and add unique calls to action.<\/p>",
              "button_text": "",
              "button_link": "",
              "icon": "ion-image"
            }
          },
          "text-column-3": {
            "type": "text_column",
            "settings": {
              "title": "Feature title",
              "text": "<p>Display up to six features with an option to toggle icons on or off, and add unique calls to action.<\/p>",
              "button_text": "",
              "button_link": "",
              "icon": "ion-image"
            }
          }
        },
        "block_order": [
          "text-column-1",
          "text-column-2",
          "text-column-3"
        ],
        "settings": {
          "style": "default",
          "columns-per-row": 3,
          "title": "Text columns with icons",
          "subtitle": ""
        }
      },
      "home-testimonials": {
        "type": "home-testimonials",
        "blocks": {
          "testimonial-1": {
            "type": "testimonial",
            "settings": {
              "quote": "<p>As someone who sits at a desk 12 hours or more a day on average, I was horrified to learn about all the health issues that are attributed to constant sitting! After hearing this I immediately started to research standing desks and found UpDesk to be the best price and the best quality, which is a rare find in any product!<\/p>",
              "source": "David",
              "city": "Entrepreneur",
              "image": "shopify:\/\/shop_images\/man-looks-at-woman-in-sunset.jpg"
            }
          },
          "testimonial-2": {
            "type": "testimonial",
            "settings": {
              "quote": "<p>I would very strongly recommend the UpDesk to anybody that has experienced chronic back, hip and leg problems over time, or anybody that works in a job that requires great focus and high productivity.As someone who sits at a desk 12 hours or more a day on average, I was horrified to learn about all the health issues that are attributed to constant sitting! After hearing this I immediately started to research standing desks and found UpDesk to be the best price and the best quality, which is a rare find in any product!<\/p>",
              "source": "Jimmy",
              "city": "Professional Gamer",
              "image": "shopify:\/\/shop_images\/video-game-controller.jpg"
            }
          },
          "1509528617698": {
            "type": "testimonial",
            "settings": {
              "quote": "<p>I get more done and simply feel better at the end of the day with an UpDesk. Using a standing desk has changed my work for the better.<\/p>",
              "source": "Lily",
              "city": "Banker",
              "image": "shopify:\/\/shop_images\/young-professional.jpg"
            }
          }
        },
        "block_order": [
          "testimonial-1",
          "testimonial-2",
          "1509528617698"
        ],
        "settings": {
          "style": "light",
          "title": "What Our Customer's Say.",
          "subtitle": ""
        }
      },
      "home-blog-posts": {
        "type": "home-blog-posts",
        "disabled": true,
        "settings": {
          "blog": "",
          "style": "light",
          "posts-to-show": 3,
          "title": "Blog posts",
          "subtitle": ""
        }
      },
      "general-social-feeds": {
        "type": "general-social-feeds",
        "blocks": {
          "widget-block-1": {
            "type": "instagram",
            "settings": {
              "access_token": ""
            }
          }
        },
        "block_order": [
          "widget-block-1"
        ],
        "settings": {}
      },
      "general-footer": {
        "type": "general-footer",
        "blocks": {
          "1509529031606": {
            "type": "menu",
            "settings": {
              "menu": "main-menu"
            }
          },
          "1509529045737": {
            "type": "menu",
            "settings": {
              "menu": "main-menu"
            }
          },
          "1509529038915": {
            "type": "social_media",
            "settings": {}
          },
          "1509529062048": {
            "type": "richtext",
            "settings": {
              "title": "About OmniDesk",
              "text": "<p>We are a local startup in Singapore. Producing affordable ergonomic furnitures for the masses.<\/p>"
            }
          }
        },
        "block_order": [
          "1509529031606",
          "1509529045737",
          "1509529038915",
          "1509529062048"
        ],
        "settings": {
          "style": "default",
          "enable_borders": true,
          "payment_icons": true,
          "show_logo": true,
          "footer_logo": "",
          "footer_logo_alternate": ""
        }
      },
      "general-header": {
        "type": "general-header",
        "settings": {
          "menu": "main-menu",
          "header_sticky": true,
          "show_cart": true,
          "drawer_social_icons": true,
          "header_logo": "",
          "header_logo_alternate": ""
        }
      },
      "general-newsletter": {
        "type": "general-newsletter",
        "settings": {
          "enable": true,
          "style": "gradient"
        }
      }
    },
    "content_for_index": [
      "home-alternating-content",
      "home-product-focus",
      "home-images-with-text",
      "home-full-width-media",
      "home-text-columns-with-icons",
      "home-testimonials",
      "home-blog-posts"
    ]
  },
  "presets": {
    "Cool": {
      "theme-primary-color": "#0381A2",
      "theme-primary-color-hover": "#0288b5",
      "theme-secondary-color": "#554d99",
      "heading-text-color": "#000000",
      "body-text-color": "#797676",
      "border-color": "#e3e3e3",
      "body-background-color": "#fff",
      "body-font": "Roboto, sans-serif",
      "body-font-weight": "300",
      "heading-font": "'Open Sans', sans-serif",
      "heading-font-weight": "300",
      "primary-button-font": "'Open Sans', sans-serif",
      "primary-button-font-weight": "700",
      "sections": {
        "home-slideshow": {
          "type": "home-slideshow",
          "blocks": {
            "slide-1": {
              "type": "slide",
              "settings": {
                "alignment": "center",
                "title": "Slideshow",
                "subtitle": "Introduce customers to your shop with lifestyle imagery and product photography."
              }
            },
            "slide-2": {
              "type": "slide",
              "settings": {
                "alignment": "center",
                "title": "Slideshow",
                "subtitle": "Introduce customers to your shop with lifestyle imagery and product photography."
              }
            }
          },
          "block_order": [
            "slide-1",
            "slide-2"
          ],
          "settings": {
            "enable": true,
            "layout": "full-window",
            "transition": "transition-fade",
            "autoplay": true
          }
        },
        "home-alternating-content": {
          "type": "home-alternating-content",
          "blocks": {
            "alternating-content-1": {
              "type": "image",
              "settings": {
                "style": "default",
                "button_text": "This is your call to action",
                "button_link": "shopify:\/\/collections"
              }
            },
            "alternating-content-2": {
              "type": "video",
              "settings": {
                "style": "light",
                "button_text": "This is your call to action",
                "button_link": "shopify:\/\/collections"
              }
            },
            "alternating-content-3": {
              "type": "image",
              "settings": {
                "style": "default",
                "button_text": "This is your call to action",
                "button_link": "shopify:\/\/collections"
              }
            }
          },
          "block_order": [
            "alternating-content-1",
            "alternating-content-2",
            "alternating-content-3"
          ],
          "settings": {}
        },
        "home-product-focus": {
          "type": "home-product-focus",
          "blocks": {
            "home-product-focus-1": {
              "type": "feature",
              "settings": {
                "icon": "ion-android-refresh"
              }
            },
            "home-product-focus-2": {
              "type": "feature",
              "settings": {
                "icon": "ion-android-volume-up"
              }
            },
            "home-product-focus-3": {
              "type": "feature",
              "settings": {
                "icon": "ion-battery-half"
              }
            },
            "home-product-focus-4": {
              "type": "feature",
              "settings": {
                "icon": "ion-android-microphone"
              }
            }
          },
          "block_order": [
            "home-product-focus-1",
            "home-product-focus-2",
            "home-product-focus-3",
            "home-product-focus-4"
          ],
          "settings": {
            "show_product_image": true,
            "style": "light",
            "title": "Product focus",
            "subtitle": "Highlight your product's finest features."
          }
        },
        "home-images-with-text": {
          "type": "home-images-with-text",
          "blocks": {
            "images-with-text-1": {
              "type": "image",
              "settings": {
                "text": "<p>Say a bit about your brand, a specific product, or promotion.<\/p>"
              }
            },
            "images-with-text-2": {
              "type": "image",
              "settings": {
                "text": "<p>Display up to four images, each with their own unique heading and text.<\/p>"
              }
            },
            "images-with-text-3": {
              "type": "image",
              "settings": {
                "text": "<p>Offer customers a wealth of information while conserving valuable vertical space on your homepage.<\/p>"
              }
            }
          },
          "block_order": [
            "images-with-text-1",
            "images-with-text-2",
            "images-with-text-3"
          ],
          "settings": {
            "style": "default",
            "alignment": "left"
          }
        },
        "home-full-width-media": {
          "type": "home-full-width-media",
          "settings": {
            "style": "default",
            "title": "Full width media",
            "text": "<p>Display a full width feature that can contain a large image, or video, and an optional call to action button.<\/p>",
            "media_layout": "video-highlight",
            "video_url": "https:\/\/www.youtube.com\/watch?v=_9VUPq3SxOc"
          }
        },
        "home-text-columns-with-icons": {
          "type": "home-text-columns-with-icons",
          "blocks": {
            "text-column-1": {
              "type": "text_column",
              "settings": {}
            },
            "text-column-2": {
              "type": "text_column",
              "settings": {}
            },
            "text-column-3": {
              "type": "text_column",
              "settings": {}
            }
          },
          "block_order": [
            "text-column-1",
            "text-column-2",
            "text-column-3"
          ],
          "settings": {
            "style": "default",
            "title": "Text columns with icons"
          }
        },
        "home-testimonials": {
          "type": "home-testimonials",
          "blocks": {
            "testimonial-1": {
              "type": "testimonial",
              "settings": {}
            },
            "testimonial-2": {
              "type": "testimonial",
              "settings": {}
            }
          },
          "block_order": [
            "testimonial-1",
            "testimonial-2"
          ],
          "settings": {
            "style": "default",
            "title": "Testimonials"
          }
        },
        "home-blog-posts": {
          "type": "home-blog-posts",
          "settings": {
            "style": "light",
            "posts-to-show": 3,
            "title": "Blog posts"
          }
        },
        "general-social-feeds": {
          "type": "general-social-feeds",
          "blocks": {
            "widget-block-1": {
              "type": "instagram",
              "settings": {}
            }
          },
          "block_order": [
            "widget-block-1"
          ],
          "settings": {}
        },
        "general-footer": {
          "type": "general-footer",
          "settings": {
            "style": "default",
            "enable_borders": true
          }
        }
      },
      "content_for_index": [
        "home-alternating-content",
        "home-product-focus",
        "home-images-with-text",
        "home-full-width-media",
        "home-text-columns-with-icons",
        "home-testimonials",
        "home-blog-posts"
      ]
    },
    "Fresh": {
      "theme-primary-color": "#857b58",
      "theme-primary-color-hover": "#6f6850",
      "theme-secondary-color": "#4e7f74",
      "heading-text-color": "#191919",
      "body-text-color": "#5e5e5e",
      "border-color": "#e6e6e6",
      "body-background-color": "#ffffff",
      "body-font": "Roboto Condensed, sans-serif",
      "body-font-weight": "300",
      "heading-font": "'Playfair Display', serif",
      "heading-font-weight": "700",
      "primary-button-font": "Roboto, sans-serif",
      "primary-button-font-weight": "700",
      "sections": {
        "home-slideshow": {
          "type": "home-slideshow",
          "blocks": {
            "slide-1": {
              "type": "slide",
              "settings": {
                "alignment": "center",
                "title": "Slideshow",
                "subtitle": "Introduce customers to your shop with lifestyle imagery and product photography."
              }
            },
            "slide-2": {
              "type": "slide",
              "settings": {
                "alignment": "center",
                "title": "Slideshow",
                "subtitle": "Introduce customers to your shop with lifestyle imagery and product photography."
              }
            }
          },
          "block_order": [
            "slide-1",
            "slide-2"
          ],
          "settings": {
            "enable": true,
            "layout": "full-window",
            "transition": "transition-slide",
            "autoplay": false
          }
        },
        "home-featured-collection": {
          "type": "home-featured-collection",
          "settings": {
            "style": "default",
            "products-per-row": 3,
            "product-rows": 2,
            "title": "Featured collection"
          }
        },
        "home-alternating-content": {
          "type": "home-alternating-content",
          "blocks": {
            "alternating-content-1": {
              "type": "image",
              "settings": {
                "style": "default",
                "button_text": "This is your call to action",
                "button_link": "shopify:\/\/collections"
              }
            },
            "alternating-content-2": {
              "type": "video",
              "settings": {
                "style": "light",
                "button_text": "This is your call to action",
                "button_link": "shopify:\/\/collections"
              }
            },
            "alternating-content-3": {
              "type": "image",
              "settings": {
                "style": "default",
                "button_text": "This is your call to action",
                "button_link": "shopify:\/\/collections"
              }
            }
          },
          "block_order": [
            "alternating-content-1",
            "alternating-content-2",
            "alternating-content-3"
          ],
          "settings": {}
        },
        "home-text-columns-with-icons": {
          "type": "home-text-columns-with-icons",
          "blocks": {
            "text-column-1": {
              "type": "text_column",
              "settings": {}
            },
            "text-column-2": {
              "type": "text_column",
              "settings": {}
            },
            "text-column-3": {
              "type": "text_column",
              "settings": {}
            }
          },
          "block_order": [
            "text-column-1",
            "text-column-2",
            "text-column-3"
          ],
          "settings": {
            "style": "default",
            "title": "Text columns with icons"
          }
        },
        "home-full-width-media": {
          "type": "home-full-width-media",
          "settings": {
            "style": "default",
            "title": "Full width media",
            "text": "<p>Display a full width feature that can contain a large image, or video, and an optional call to action button.<\/p>",
            "media_layout": "video-highlight",
            "video_url": "https:\/\/www.youtube.com\/watch?v=_9VUPq3SxOc"
          }
        },
        "home-testimonials": {
          "type": "home-testimonials",
          "blocks": {
            "testimonial-1": {
              "type": "testimonial",
              "settings": {}
            },
            "testimonial-2": {
              "type": "testimonial",
              "settings": {}
            }
          },
          "block_order": [
            "testimonial-1",
            "testimonial-2"
          ],
          "settings": {
            "style": "default",
            "title": "Testimonials"
          }
        },
        "home-blog-posts": {
          "type": "home-blog-posts",
          "settings": {
            "style": "light",
            "posts-to-show": 3,
            "title": "Blog posts"
          }
        },
        "general-social-feeds": {
          "type": "general-social-feeds",
          "blocks": {
            "widget-block-1": {
              "type": "twitter",
              "settings": {
                "style": "gradient"
              }
            }
          },
          "block_order": [
            "widget-block-1"
          ],
          "settings": {}
        },
        "general-footer": {
          "type": "general-footer",
          "settings": {
            "style": "light",
            "enable_borders": true,
            "show_logo": true
          }
        }
      },
      "content_for_index": [
        "home-featured-collection",
        "home-alternating-content",
        "home-text-columns-with-icons",
        "home-full-width-media",
        "home-testimonials",
        "home-blog-posts"
      ]
    },
    "Bold": {
      "theme-primary-color": "#ea2931",
      "theme-primary-color-hover": "#d1282f",
      "theme-secondary-color": "#fd8311",
      "heading-text-color": "#161a1c",
      "body-text-color": "#7f7f7f",
      "border-color": "#e3e3e3",
      "body-background-color": "#ffffff",
      "body-font": "'Source Sans Pro', sans-serif",
      "body-font-weight": "300",
      "heading-font": "Montserrat, sans-serif",
      "heading-font-weight": "400",
      "primary-button-font": "'Source Sans Pro', sans-serif",
      "primary-button-font-weight": "700",
      "sections": {
        "home-slideshow": {
          "type": "home-slideshow",
          "blocks": {
            "slide-1": {
              "type": "slide",
              "settings": {
                "alignment": "center",
                "title": "Slideshow",
                "subtitle": "Introduce customers to your shop with lifestyle imagery and product photography."
              }
            }
          },
          "block_order": [
            "slide-1"
          ],
          "settings": {
            "enable": true,
            "layout": "full-width",
            "transition": "transition-fade",
            "autoplay": false
          }
        },
        "home-alternating-content": {
          "type": "home-alternating-content",
          "blocks": {
            "alternating-content-1": {
              "type": "image",
              "settings": {
                "style": "default",
                "button_text": "This is your call to action",
                "button_link": "shopify:\/\/collections"
              }
            },
            "alternating-content-2": {
              "type": "video",
              "settings": {
                "style": "light",
                "button_text": "This is your call to action",
                "button_link": "shopify:\/\/collections"
              }
            },
            "alternating-content-3": {
              "type": "image",
              "settings": {
                "style": "default",
                "button_text": "This is your call to action",
                "button_link": "shopify:\/\/collections"
              }
            }
          },
          "block_order": [
            "alternating-content-1",
            "alternating-content-2",
            "alternating-content-3"
          ],
          "settings": {}
        },
        "home-product-focus": {
          "type": "home-product-focus",
          "blocks": {
            "home-product-focus-1": {
              "type": "feature",
              "settings": {
                "icon": "ion-android-refresh"
              }
            },
            "home-product-focus-2": {
              "type": "feature",
              "settings": {
                "icon": "ion-android-volume-up"
              }
            },
            "home-product-focus-3": {
              "type": "feature",
              "settings": {
                "icon": "ion-battery-half"
              }
            },
            "home-product-focus-4": {
              "type": "feature",
              "settings": {
                "icon": "ion-android-microphone"
              }
            }
          },
          "block_order": [
            "home-product-focus-1",
            "home-product-focus-2",
            "home-product-focus-3",
            "home-product-focus-4"
          ],
          "settings": {
            "show_product_image": true,
            "style": "light",
            "title": "Product focus",
            "subtitle": "Highlight your product's finest features."
          }
        },
        "home-images-with-text": {
          "type": "home-images-with-text",
          "blocks": {
            "images-with-text-1": {
              "type": "image",
              "settings": {
                "text": "<p>Say a bit about your brand, a specific product, or promotion.<\/p>"
              }
            },
            "images-with-text-2": {
              "type": "image",
              "settings": {
                "text": "<p>Display up to four images, each with their own unique heading and text.<\/p>"
              }
            },
            "images-with-text-3": {
              "type": "image",
              "settings": {
                "text": "<p>Offer customers a wealth of information while conserving valuable vertical space on your homepage.<\/p>"
              }
            }
          },
          "block_order": [
            "images-with-text-1",
            "images-with-text-2",
            "images-with-text-3"
          ],
          "settings": {
            "style": "default",
            "alignment": "right"
          }
        },
        "home-text-columns-with-icons": {
          "type": "home-text-columns-with-icons",
          "blocks": {
            "text-column-1": {
              "type": "text_column",
              "settings": {}
            },
            "text-column-2": {
              "type": "text_column",
              "settings": {}
            },
            "text-column-3": {
              "type": "text_column",
              "settings": {}
            }
          },
          "block_order": [
            "text-column-1",
            "text-column-2",
            "text-column-3"
          ],
          "settings": {
            "style": "light",
            "title": "Text columns with icons"
          }
        },
        "home-full-width-media": {
          "type": "home-full-width-media",
          "settings": {
            "style": "default",
            "title": "Full width media",
            "text": "<p>Display a full width feature that can contain a large image, or video, and an optional call to action button.<\/p>",
            "media_layout": "video-highlight",
            "video_url": "https:\/\/www.youtube.com\/watch?v=_9VUPq3SxOc"
          }
        },
        "home-testimonials": {
          "type": "home-testimonials",
          "blocks": {
            "testimonial-1": {
              "type": "testimonial",
              "settings": {}
            },
            "testimonial-2": {
              "type": "testimonial",
              "settings": {}
            }
          },
          "block_order": [
            "testimonial-1",
            "testimonial-2"
          ],
          "settings": {
            "style": "default",
            "title": "Testimonials"
          }
        },
        "home-blog-posts": {
          "type": "home-blog-posts",
          "settings": {
            "style": "light",
            "posts-to-show": 2,
            "title": "Blog posts"
          }
        },
        "general-header": {
          "type": "general-header",
          "settings": {
            "header_sticky": true
          }
        },
        "general-social-feeds": {
          "type": "general-social-feeds",
          "blocks": {
            "widget-block-1": {
              "type": "instagram",
              "settings": {}
            },
            "widget-block-2": {
              "type": "twitter",
              "settings": {
                "style": "light"
              }
            }
          },
          "block_order": [
            "widget-block-1",
            "widget-block-2"
          ],
          "settings": {}
        },
        "general-footer": {
          "type": "general-footer",
          "settings": {
            "style": "default",
            "enable_borders": true,
            "show_logo": true
          }
        }
      },
      "content_for_index": [
        "home-alternating-content",
        "home-product-focus",
        "home-images-with-text",
        "home-text-columns-with-icons",
        "home-full-width-media",
        "home-testimonials",
        "home-blog-posts"
      ]
    }
  }
}